{
	"$schema": "http://json-schema.org/schema",
	"id": "EchoState",
	"properties": {
		"message": {
			"description": "Message to echo",
			"type": "string",
			"default": "1234"
		}
	},
	"title": "EchosState",
	"type": "object",
	"required": ["message"]
}