{
	"$schema": "http://json-schema.org/schema",
	"id": "LogState",
	"properties": {
		"time": {
			"type": "integer",
			"default": 0
		},
		"source": {
			"type": "string",
			"default": "default"
		},
		"line": {
			"type": "integer",
			"default": 0
		},
		"pid": {
			"type": "integer",
			"default": 0
		},
		"ppid": {
			"type": "integer",
			"default": 0
		},
		"messageKey1": {
			"type": "string",
			"default": "default"
		},
		"messageBigLongKey2": {
			"type": "string",
			"default": "default"
		}
	},
	"title": "LogState",
	"type": "object",
	"required": ["time","source","line","pid","ppid","messageKey1","messageBigLongKey2"]
}